CPU/simulation/qsim/Evermoore.msim.vcd
$comment
	File created using the following command:
		vcd file Evermoore.msim.vcd -direction
$end
$date
	Wed Jun 03 16:49:45 2020
$end
$version
	ModelSim Version 10.5b
$end
$timescale
	1ps
$end

$scope module statemachine_vlg_vec_tst $end
$var reg 1 ! CLK $end
$var reg 1 " extra $end
$var wire 1 # state [1] $end
$var wire 1 $ state [0] $end

$scope module i1 $end
$var wire 1 % gnd $end
$var wire 1 & vcc $end
$var wire 1 ' unknown $end
$var tri1 1 ( devclrn $end
$var tri1 1 ) devpor $end
$var tri1 1 * devoe $end
$var wire 1 + state[1]~output_o $end
$var wire 1 , state[0]~output_o $end
$var wire 1 - CLK~input_o $end
$var wire 1 . extra~input_o $end
$var wire 1 / inst|N[0]~0_combout $end
$var wire 1 0 inst1|inst1~q $end
$var wire 1 1 inst1|inst~q $end
$var wire 1 2 inst|N [1] $end
$var wire 1 3 inst|N [0] $end
$upscope $end
$upscope $end
$enddefinitions $end
#0
$dumpvars
0!
0"
0$
0#
0%
1&
x'
1(
1)
1*
0+
0,
0-
0.
1/
00
01
z3
02
$end
#10000
1!
1-
10
1,
1$
#20000
0!
0-
#30000
1"
1!
1.
1-
12
0/
#40000
0"
0!
0.
0-
02
1/
#50000
1"
1!
1.
1-
12
0/
#60000
0!
0-
#70000
0"
1!
0.
1-
02
1/
11
00
0,
1+
1#
0$
#80000
1"
0!
1.
0-
#90000
1!
1-
01
10
1,
0+
0#
1$
12
0/
#100000
0!
0-
#110000
0"
1!
0.
1-
02
1/
11
00
0,
1+
1#
0$
#120000
1"
0!
1.
0-
#130000
0"
1!
0.
1-
01
10
1,
0+
0#
1$
#140000
1"
0!
1.
0-
12
0/
#150000
1!
1-
11
00
0,
1+
1#
0$
02
1/
#160000
0!
0-
#170000
0"
1!
0.
1-
01
10
1,
0+
0#
1$
#180000
0!
0-
#190000
1"
1!
1.
1-
12
0/
#200000
0!
0-
#210000
1!
1-
11
00
0,
1+
1#
0$
02
1/
#220000
0!
0-
#230000
0"
1!
0.
1-
01
10
1,
0+
0#
1$
#240000
0!
0-
#250000
1!
1-
#260000
1"
0!
1.
0-
12
0/
#270000
0"
1!
0.
1-
02
1/
11
00
0,
1+
1#
0$
#280000
0!
0-
#290000
1"
1!
1.
1-
01
10
1,
0+
0#
1$
12
0/
#300000
0"
0!
0.
0-
02
1/
#310000
1"
1!
1.
1-
12
0/
#320000
0!
0-
#330000
1!
1-
11
00
0,
1+
1#
0$
02
1/
#340000
0"
0!
0.
0-
#350000
1"
1!
1.
1-
01
10
1,
0+
0#
1$
12
0/
#360000
0"
0!
0.
0-
02
1/
#370000
1"
1!
1.
1-
12
0/
#380000
0!
0-
#390000
1!
1-
11
00
0,
1+
1#
0$
02
1/
#400000
0!
0-
#410000
1!
1-
01
10
1,
0+
0#
1$
12
0/
#420000
0!
0-
#430000
1!
1-
11
00
0,
1+
1#
0$
02
1/
#440000
0"
0!
0.
0-
#450000
1!
1-
01
10
1,
0+
0#
1$
#460000
0!
0-
#470000
1"
1!
1.
1-
12
0/
#480000
0"
0!
0.
0-
02
1/
#490000
1!
1-
#500000
1"
0!
1.
0-
12
0/
#510000
0"
1!
0.
1-
02
1/
11
00
0,
1+
1#
0$
#520000
0!
0-
#530000
1"
1!
1.
1-
01
10
1,
0+
0#
1$
12
0/
#540000
0"
0!
0.
0-
02
1/
#550000
1!
1-
#560000
1"
0!
1.
0-
12
0/
#570000
0"
1!
0.
1-
02
1/
11
00
0,
1+
1#
0$
#580000
0!
0-
#590000
1!
1-
01
10
1,
0+
0#
1$
#600000
1"
0!
1.
0-
12
0/
#610000
0"
1!
0.
1-
02
1/
11
00
0,
1+
1#
0$
#620000
1"
0!
1.
0-
#630000
0"
1!
0.
1-
01
10
1,
0+
0#
1$
#640000
0!
0-
#650000
1"
1!
1.
1-
12
0/
#660000
0"
0!
0.
0-
02
1/
#670000
1"
1!
1.
1-
12
0/
#680000
0"
0!
0.
0-
02
1/
#690000
1"
1!
1.
1-
12
0/
#700000
0"
0!
0.
0-
02
1/
#710000
1!
1-
#720000
1"
0!
1.
0-
12
0/
#730000
0"
1!
0.
1-
02
1/
11
00
0,
1+
1#
0$
#740000
1"
0!
1.
0-
#750000
1!
1-
01
10
1,
0+
0#
1$
12
0/
#760000
0"
0!
0.
0-
02
1/
#770000
1"
1!
1.
1-
12
0/
#780000
0"
0!
0.
0-
02
1/
#790000
1!
1-
#800000
1"
0!
1.
0-
12
0/
#810000
0"
1!
0.
1-
02
1/
11
00
0,
1+
1#
0$
#820000
1"
0!
1.
0-
#830000
1!
1-
01
10
1,
0+
0#
1$
12
0/
#840000
0!
0-
#850000
0"
1!
0.
1-
02
1/
11
00
0,
1+
1#
0$
#860000
1"
0!
1.
0-
#870000
1!
1-
01
10
1,
0+
0#
1$
12
0/
#880000
0!
0-
#890000
1!
1-
11
00
0,
1+
1#
0$
02
1/
#900000
0"
0!
0.
0-
#910000
1"
1!
1.
1-
01
10
1,
0+
0#
1$
12
0/
#920000
0"
0!
0.
0-
02
1/
#930000
1"
1!
1.
1-
12
0/
#940000
0"
0!
0.
0-
02
1/
#950000
1"
1!
1.
1-
12
0/
#960000
0"
0!
0.
0-
02
1/
#970000
1"
1!
1.
1-
12
0/
#980000
0"
0!
0.
0-
02
1/
#990000
1!
1-
