CPU/simulation/qsim/Evermoore.msim.vcd
$comment
	File created using the following command:
		vcd file Evermoore.msim.vcd -direction
$end
$date
	Thu May 28 15:47:01 2020
$end
$version
	ModelSim Version 10.5b
$end
$timescale
	1ps
$end

$scope module mult8x8_vlg_vec_tst $end
$var reg 8 ! A [7:0] $end
$var reg 8 " B [7:0] $end
$var wire 1 # P [15] $end
$var wire 1 $ P [14] $end
$var wire 1 % P [13] $end
$var wire 1 & P [12] $end
$var wire 1 ' P [11] $end
$var wire 1 ( P [10] $end
$var wire 1 ) P [9] $end
$var wire 1 * P [8] $end
$var wire 1 + P [7] $end
$var wire 1 , P [6] $end
$var wire 1 - P [5] $end
$var wire 1 . P [4] $end
$var wire 1 / P [3] $end
$var wire 1 0 P [2] $end
$var wire 1 1 P [1] $end
$var wire 1 2 P [0] $end

$scope module i1 $end
$var wire 1 3 gnd $end
$var wire 1 4 vcc $end
$var wire 1 5 unknown $end
$var tri1 1 6 devclrn $end
$var tri1 1 7 devpor $end
$var tri1 1 8 devoe $end
$var wire 1 9 P[0]~output_o $end
$var wire 1 : P[1]~output_o $end
$var wire 1 ; P[2]~output_o $end
$var wire 1 < P[3]~output_o $end
$var wire 1 = P[4]~output_o $end
$var wire 1 > P[5]~output_o $end
$var wire 1 ? P[6]~output_o $end
$var wire 1 @ P[7]~output_o $end
$var wire 1 A P[8]~output_o $end
$var wire 1 B P[9]~output_o $end
$var wire 1 C P[10]~output_o $end
$var wire 1 D P[11]~output_o $end
$var wire 1 E P[12]~output_o $end
$var wire 1 F P[13]~output_o $end
$var wire 1 G P[14]~output_o $end
$var wire 1 H P[15]~output_o $end
$var wire 1 I A[0]~input_o $end
$var wire 1 J B[0]~input_o $end
$var wire 1 K A[1]~input_o $end
$var wire 1 L B[1]~input_o $end
$var wire 1 M U1|U1|U1|Add0~0_combout $end
$var wire 1 N U1|U1|U2|SUM~0_combout $end
$var wire 1 O B[2]~input_o $end
$var wire 1 P A[2]~input_o $end
$var wire 1 Q U1|Add1~1_sumout $end
$var wire 1 R U1|U1|U2|SUM~1_combout $end
$var wire 1 S A[3]~input_o $end
$var wire 1 T U1|U3|U1|Add0~0_combout $end
$var wire 1 U B[3]~input_o $end
$var wire 1 V U1|U2|U1|Add0~0_combout $end
$var wire 1 W U1|Add1~2 $end
$var wire 1 X U1|Add1~3 $end
$var wire 1 Y U1|Add1~5_sumout $end
$var wire 1 Z A[4]~input_o $end
$var wire 1 [ B[4]~input_o $end
$var wire 1 \ U1|U3|U2|SUM~0_combout $end
$var wire 1 ] U1|U2|U2|SUM~0_combout $end
$var wire 1 ^ U1|Add1~6 $end
$var wire 1 _ U1|Add1~7 $end
$var wire 1 ` U1|Add1~9_sumout $end
$var wire 1 a Add0~1_sumout $end
$var wire 1 b A[5]~input_o $end
$var wire 1 c U3|U1|U1|Add0~0_combout $end
$var wire 1 d B[5]~input_o $end
$var wire 1 e U2|U1|U1|Add0~0_combout $end
$var wire 1 f U1|U4|U1|Add0~0_combout $end
$var wire 1 g U1|U3|U2|SUM~1_combout $end
$var wire 1 h U1|U2|U2|SUM~1_combout $end
$var wire 1 i U1|Add1~10 $end
$var wire 1 j U1|Add1~11 $end
$var wire 1 k U1|Add1~13_sumout $end
$var wire 1 l Add0~2 $end
$var wire 1 m Add0~3 $end
$var wire 1 n Add0~5_sumout $end
$var wire 1 o U3|U1|U1|SUM~0_combout $end
$var wire 1 p U3|U1|comb~0_combout $end
$var wire 1 q A[6]~input_o $end
$var wire 1 r U3|Add1~31_cout $end
$var wire 1 s U3|Add1~10_cout $end
$var wire 1 t U3|Add1~1_sumout $end
$var wire 1 u B[6]~input_o $end
$var wire 1 v U2|U1|U1|SUM~0_combout $end
$var wire 1 w U2|U1|comb~0_combout $end
$var wire 1 x U2|Add1~31_cout $end
$var wire 1 y U2|Add1~10_cout $end
$var wire 1 z U2|Add1~1_sumout $end
$var wire 1 { U1|Add1~14 $end
$var wire 1 | U1|Add1~15 $end
$var wire 1 } U1|Add1~17_sumout $end
$var wire 1 ~ Add0~6 $end
$var wire 1 !! Add0~7 $end
$var wire 1 "! Add0~9_sumout $end
$var wire 1 #! U3|U2|comb~0_combout $end
$var wire 1 $! A[7]~input_o $end
$var wire 1 %! U3|U3|U1|Add0~0_combout $end
$var wire 1 &! U3|Add1~12_combout $end
$var wire 1 '! U3|Add1~2 $end
$var wire 1 (! U3|Add1~5_sumout $end
$var wire 1 )! B[7]~input_o $end
$var wire 1 *! U2|U3|U1|Add0~0_combout $end
$var wire 1 +! U2|Add1~12_combout $end
$var wire 1 ,! U2|Add1~2 $end
$var wire 1 -! U2|Add1~5_sumout $end
$var wire 1 .! U1|Add1~18 $end
$var wire 1 /! U1|Add1~19 $end
$var wire 1 0! U1|Add1~21_sumout $end
$var wire 1 1! Add0~10 $end
$var wire 1 2! Add0~11 $end
$var wire 1 3! Add0~13_sumout $end
$var wire 1 4! U3|U3|comb~0_combout $end
$var wire 1 5! U3|Add1~33_combout $end
$var wire 1 6! U3|U3|comb~1_combout $end
$var wire 1 7! U3|U3|comb~2_combout $end
$var wire 1 8! U3|Add0~1_sumout $end
$var wire 1 9! U3|Add1~6 $end
$var wire 1 :! U3|Add1~14_sumout $end
$var wire 1 ;! U2|U3|comb~0_combout $end
$var wire 1 <! U2|Add1~33_combout $end
$var wire 1 =! U2|U3|comb~1_combout $end
$var wire 1 >! U2|U3|comb~2_combout $end
$var wire 1 ?! U2|Add0~1_sumout $end
$var wire 1 @! U2|Add1~6 $end
$var wire 1 A! U2|Add1~14_sumout $end
$var wire 1 B! Add0~14 $end
$var wire 1 C! Add0~15 $end
$var wire 1 D! Add0~17_sumout $end
$var wire 1 E! U4|Add1~1_sumout $end
$var wire 1 F! U4|U1|comb~0_combout $end
$var wire 1 G! U3|U2|U2|SUM~0_combout $end
$var wire 1 H! U3|U3|U1|SUM~0_combout $end
$var wire 1 I! U3|Add0~2 $end
$var wire 1 J! U3|Add0~5_sumout $end
$var wire 1 K! U3|Add1~15 $end
$var wire 1 L! U3|Add1~18_sumout $end
$var wire 1 M! U2|U2|U2|SUM~0_combout $end
$var wire 1 N! U2|U3|U1|SUM~0_combout $end
$var wire 1 O! U2|Add0~2 $end
$var wire 1 P! U2|Add0~5_sumout $end
$var wire 1 Q! U2|Add1~15 $end
$var wire 1 R! U2|Add1~18_sumout $end
$var wire 1 S! Add0~18 $end
$var wire 1 T! Add0~19 $end
$var wire 1 U! Add0~21_sumout $end
$var wire 1 V! U4|Add1~2 $end
$var wire 1 W! U4|Add1~3 $end
$var wire 1 X! U4|Add1~5_sumout $end
$var wire 1 Y! U3|U2|comb~1_combout $end
$var wire 1 Z! U3|U3|U2|SUM~0_combout $end
$var wire 1 [! U3|Add0~6 $end
$var wire 1 \! U3|Add0~9_sumout $end
$var wire 1 ]! U3|Add1~19 $end
$var wire 1 ^! U3|Add1~22_sumout $end
$var wire 1 _! U2|U2|comb~0_combout $end
$var wire 1 `! U2|U3|U2|SUM~0_combout $end
$var wire 1 a! U2|Add0~6 $end
$var wire 1 b! U2|Add0~9_sumout $end
$var wire 1 c! U2|Add1~19 $end
$var wire 1 d! U2|Add1~22_sumout $end
$var wire 1 e! Add0~22 $end
$var wire 1 f! Add0~23 $end
$var wire 1 g! Add0~25_sumout $end
$var wire 1 h! U4|U1|U2|SUM~0_combout $end
$var wire 1 i! U4|Add1~32_combout $end
$var wire 1 j! U4|Add1~6 $end
$var wire 1 k! U4|Add1~7 $end
$var wire 1 l! U4|Add1~9_sumout $end
$var wire 1 m! U3|Add0~10 $end
$var wire 1 n! U3|Add0~13_sumout $end
$var wire 1 o! U3|Add1~23 $end
$var wire 1 p! U3|Add1~26_sumout $end
$var wire 1 q! U2|Add0~10 $end
$var wire 1 r! U2|Add0~13_sumout $end
$var wire 1 s! U2|Add1~23 $end
$var wire 1 t! U2|Add1~26_sumout $end
$var wire 1 u! Add0~26 $end
$var wire 1 v! Add0~27 $end
$var wire 1 w! Add0~29_sumout $end
$var wire 1 x! U4|U2|U1|Add0~0_combout $end
$var wire 1 y! U4|U3|U1|Add0~0_combout $end
$var wire 1 z! U4|Add1~33_combout $end
$var wire 1 {! U4|Add1~10 $end
$var wire 1 |! U4|Add1~11 $end
$var wire 1 }! U4|Add1~13_sumout $end
$var wire 1 ~! U4|U3|U2|SUM~0_combout $end
$var wire 1 !" U4|Add1~34_combout $end
$var wire 1 "" U4|Add0~1_sumout $end
$var wire 1 #" Add0~30 $end
$var wire 1 $" Add0~31 $end
$var wire 1 %" Add0~33_sumout $end
$var wire 1 &" U4|Add1~14 $end
$var wire 1 '" U4|Add1~15 $end
$var wire 1 (" U4|Add1~17_sumout $end
$var wire 1 )" U4|U2|comb~0_combout $end
$var wire 1 *" U4|U2|U1|SUM~0_combout $end
$var wire 1 +" U4|Add1~35_combout $end
$var wire 1 ," U4|U3|U2|SUM~1_combout $end
$var wire 1 -" U4|Add0~2 $end
$var wire 1 ." U4|Add0~5_sumout $end
$var wire 1 /" U4|Add1~18 $end
$var wire 1 0" U4|Add1~19 $end
$var wire 1 1" U4|Add1~21_sumout $end
$var wire 1 2" U4|Add1~36_combout $end
$var wire 1 3" U4|Add0~6 $end
$var wire 1 4" U4|Add0~9_sumout $end
$var wire 1 5" U4|Add1~22 $end
$var wire 1 6" U4|Add1~23 $end
$var wire 1 7" U4|Add1~25_sumout $end
$var wire 1 8" U4|Add0~10 $end
$var wire 1 9" U4|Add0~13_sumout $end
$var wire 1 :" U4|Add1~26 $end
$var wire 1 ;" U4|Add1~27 $end
$var wire 1 <" U4|Add1~29_sumout $end
$var wire 1 =" U2|U1|P [3] $end
$var wire 1 >" U2|U1|P [2] $end
$var wire 1 ?" U2|U1|P [1] $end
$var wire 1 @" U2|U1|P [0] $end
$var wire 1 A" U1|U1|P [3] $end
$var wire 1 B" U1|U1|P [2] $end
$var wire 1 C" U1|U1|P [1] $end
$var wire 1 D" U1|U1|P [0] $end
$var wire 1 E" U1|U4|P [3] $end
$var wire 1 F" U1|U4|P [2] $end
$var wire 1 G" U1|U4|P [1] $end
$var wire 1 H" U1|U4|P [0] $end
$var wire 1 I" U4|U3|P [3] $end
$var wire 1 J" U4|U3|P [2] $end
$var wire 1 K" U4|U3|P [1] $end
$var wire 1 L" U4|U3|P [0] $end
$var wire 1 M" U1|U2|P [3] $end
$var wire 1 N" U1|U2|P [2] $end
$var wire 1 O" U1|U2|P [1] $end
$var wire 1 P" U1|U2|P [0] $end
$var wire 1 Q" U3|U3|P [3] $end
$var wire 1 R" U3|U3|P [2] $end
$var wire 1 S" U3|U3|P [1] $end
$var wire 1 T" U3|U3|P [0] $end
$var wire 1 U" U1|U3|P [3] $end
$var wire 1 V" U1|U3|P [2] $end
$var wire 1 W" U1|U3|P [1] $end
$var wire 1 X" U1|U3|P [0] $end
$var wire 1 Y" U2|U3|P [3] $end
$var wire 1 Z" U2|U3|P [2] $end
$var wire 1 [" U2|U3|P [1] $end
$var wire 1 \" U2|U3|P [0] $end
$var wire 1 ]" U3|U1|P [3] $end
$var wire 1 ^" U3|U1|P [2] $end
$var wire 1 _" U3|U1|P [1] $end
$var wire 1 `" U3|U1|P [0] $end
$upscope $end
$upscope $end
$enddefinitions $end
#0
$dumpvars
b0 !
b0 "
02
01
00
0/
0.
0-
0,
0+
0*
0)
0(
0'
0&
0%
0$
0#
03
14
x5
16
17
18
09
0:
0;
0<
0=
0>
0?
0@
0A
0B
0C
0D
0E
0F
0G
0H
0I
0J
0K
0L
0M
0N
0O
0P
0Q
0R
0S
0T
0U
0V
0W
0X
0Y
0Z
0[
0\
0]
0^
0_
0`
0a
0b
0c
0d
0e
0f
0g
0h
0i
0j
0k
0l
0m
0n
0o
0p
0q
0r
0s
0t
0u
0v
0w
0x
0y
0z
0{
0|
0}
0~
0!!
0"!
0#!
0$!
0%!
0&!
0'!
0(!
0)!
0*!
0+!
0,!
0-!
0.!
0/!
00!
01!
02!
03!
04!
05!
06!
07!
08!
09!
0:!
0;!
0<!
0=!
0>!
0?!
0@!
0A!
0B!
0C!
0D!
0E!
0F!
0G!
0H!
0I!
0J!
0K!
0L!
0M!
0N!
0O!
0P!
0Q!
0R!
0S!
0T!
0U!
0V!
0W!
0X!
0Y!
0Z!
0[!
0\!
0]!
0^!
0_!
0`!
0a!
0b!
0c!
0d!
0e!
0f!
0g!
0h!
0i!
0j!
0k!
0l!
0m!
0n!
0o!
0p!
0q!
0r!
0s!
0t!
0u!
0v!
0w!
0x!
0y!
0z!
0{!
0|!
0}!
0~!
0!"
0""
0#"
0$"
0%"
0&"
0'"
0("
0)"
0*"
0+"
0,"
0-"
0."
0/"
00"
01"
02"
03"
04"
05"
06"
07"
08"
09"
0:"
0;"
0<"
0@"
z?"
z>"
z="
0D"
zC"
zB"
zA"
0H"
zG"
zF"
zE"
0L"
zK"
zJ"
zI"
0P"
zO"
zN"
zM"
0T"
zS"
zR"
zQ"
0X"
zW"
zV"
zU"
0\"
z["
zZ"
zY"
0`"
z_"
z^"
z]"
$end
#10000
b10 !
b11 !
1I
1K
#20000
b111 !
b110 !
0I
1P
#30000
b1110 !
b1100 !
b1000 !
b1001 !
1I
0K
0P
1S
#40000
b1101 !
b1100 !
0I
1P
#50000
b100 "
b101 "
b1110 !
b1111 !
1I
1K
1J
1O
1f
1H"
1V
1P"
1T
1X"
1M
1D"
19
1:
1X
1_
1`
1k
11
12
1i
0`
1Y
1n
1a
1=
1>
1<
1{
0k
1/
1-
1.
0a
0=
1}
0.
0n
0>
0-
1"!
1?
1,
#60000
b11111 !
b10111 !
b10011 !
b10010 !
0I
0P
0S
1Z
1t
1`"
0f
0T
0H"
0X"
0P"
0D"
09
0X
0i
1`
1^
0_
0{
1k
12!
02
0Y
1a
0"!
0?
1=
0<
0^
0k
0}
1m
0/
1.
0,
1Y
13!
1n
0a
0=
1>
1@
1<
0`
02!
1/
1+
1-
0.
1"!
1?
0m
1,
03!
1a
1=
0@
0+
1.
0n
0>
0-
#70000
b10000 !
b10100 !
b10101 !
1I
0K
1P
1H"
1X"
0V
1P"
0M
1D"
19
0:
1X
1`
01
12
0Y
0<
1m
0/
1Y
0a
0=
1<
1/
0.
1n
1>
1-
#80000
b11101 !
b11001 !
b11000 !
0I
0P
1S
1f
1T
0H"
0X"
0P"
0D"
09
0X
0`
1^
1k
02
0Y
0<
0^
1`
1~
0m
0/
1Y
0n
1a
1=
0>
1<
0`
11!
0~
1m
1/
0-
1.
0"!
1n
0a
0=
1>
0?
01!
1~
0m
0,
1-
0.
13!
1"!
0n
1a
1=
0>
1?
1@
11!
0~
1+
1,
0-
1.
03!
0"!
1n
1>
0?
0@
01!
0+
0,
1-
13!
1"!
1?
1@
1+
1,
03!
0@
0+
#90000
b11010 !
b11011 !
1I
1K
1V
1P"
1M
1D"
19
1:
1_
11
12
1Q
0Y
0<
1;
1`
10
0/
1m
0a
0=
1~
0.
0n
0>
11!
0-
0"!
0?
0,
13!
1@
1+
#100000
b1101 "
b1111 "
b1011 "
b1010 "
b11111 !
b11110 !
0I
1P
0J
1L
0O
1U
1(!
1}
1]
0V
0t
0P"
1c
1\
1N
0`"
0M
0D"
09
0:
0m
1j
0~
1!!
0_
1B!
01
02
1a
1n
1Y
03!
0@
1<
1>
1=
1{
0k
0`
1D!
1.
1-
1/
0+
0n
0>
1.!
0}
0!!
0-
1E!
0a
1n
1>
0=
1A
10!
01!
1*
0.
1-
0B!
1C!
#110000
b111110 !
b101110 !
b100110 !
b100100 !
b100000 !
b100001 !
1I
0K
0P
0S
0Z
1b
1Y!
18!
1p
0c
0(!
0.!
1}
0f
0\
0T
0]
1V
0N
1M
1:
00!
0j
0{
1k
0C!
1t
1:!
11
0Q
1"!
13!
0n
0>
1@
1?
0;
0k
0}
12!
00
1,
1+
0-
0"!
1n
03!
0@
1>
0?
02!
0,
1-
0+
13!
1"!
0n
0>
1?
1@
1+
1,
0-
03!
0@
0+
#120000
b100101 !
b100100 !
0I
1P
1f
1T
0V
0M
0:
1k
01
1n
1>
1-
#130000
b100110 !
b100111 !
1I
1K
1]
1V
1N
1M
1:
1_
1`
11
1Q
0Y
0<
1;
1i
0`
10
0/
1a
1=
1{
0k
1.
0a
0=
1}
0.
0n
0>
12!
0-
0"!
0?
0,
13!
1@
1+
#140000
b101111 !
b101011 !
b101010 !
0I
0P
1S
1.!
0}
0f
1\
0T
0V
0M
0:
10!
0_
0i
1`
1j
0{
1k
02!
01
1"!
1?
0`
0.!
1}
1,
1n
1a
1=
1>
00!
12!
1-
1.
0"!
0a
0=
0?
0,
0.
#150000
b1110 "
b1111 "
b101000 !
b101100 !
b101101 !
1I
0K
1P
1J
1O
10!
1#!
0}
0]
1H"
1V
1P"
1g
1c
0\
1X"
0N
1M
1D"
19
1:
1X
1`
0j
1!!
1{
0k
02!
1(!
1B!
11
12
0Q
0n
1Y
1"!
03!
0@
1?
1<
0>
0;
1^
0{
1k
11!
1}
0B!
1C!
1S!
0D!
0!!
00
0-
1/
1,
0+
0Y
0"!
1n
1a
1=
1>
0?
0<
1i
0`
0}
1U!
01!
12!
1!!
0/
0,
1-
1.
13!
0E!
0n
0>
0A
1@
1{
0k
11!
02!
1+
0*
0-
1X!
0a
0=
1B
1}
0!!
1)
0.
1n
1>
01!
12!
1-
#160000
b111101 !
b110101 !
b110001 !
b110000 !
0I
0P
0S
1Z
1G!
08!
0(!
1&!
0t
1o
0c
1`"
00!
0g
0H"
0X"
0V
0P"
0M
0D"
09
0:
0X
0^
0i
1`
0{
1k
0C!
1t
02!
1(!
0:!
1L!
01
02
1Y
1a
0n
1"!
1?
0>
1=
1<
0`
0k
0}
0S!
1e!
0U!
12!
1m
1/
1.
0-
1,
0Y
0"!
1n
0a
0=
1>
0?
0<
0e!
1U!
1g!
1B!
02!
0m
0/
0,
1-
0.
03!
0X!
1"!
1a
1=
1?
0B
0@
0g!
1D!
0B!
0+
0)
1,
1.
13!
0n
1l!
1X!
1B
1C
0>
1@
0D!
1+
0-
1(
1)
1E!
0l!
0C
1A
1*
0(
0E!
0A
0*
#170000
b110010 !
b110011 !
1I
1K
1h
1R
1P"
1D"
19
1k
12
1Q
1Y
1<
1;
10
1/
1n
1>
1-
#180000
b110111 !
b110110 !
0I
1P
1f
1H"
1T
1X"
0h
1]
1V
0R
0P"
1N
1M
0D"
09
1:
1X
1_
1j
11
02
0Q
0Y
0<
0;
1`
1{
0k
00
0/
1Y
1<
1}
1m
1/
0n
0a
0=
0>
12!
0-
0.
1n
0"!
0?
1>
1B!
1-
0,
03!
0@
1D!
0+
1E!
1A
1*
#190000
b111110 !
b111100 !
b111000 !
b111001 !
1I
0K
0P
1S
1.!
0}
1\
0H"
0X"
0]
0N
1P"
1D"
19
10!
0X
1i
0`
0j
02!
12
1Q
1"!
1?
1;
0B!
1C!
0m
10
1,
0Y
1a
1=
0<
0/
1.
0n
0>
0-
#200000
b11111 "
b10111 "
b10101 "
b10100 "
b111101 !
b111100 !
0I
1P
0J
0L
0U
1[
1F!
1W!
1>!
1*!
1\"
0Y!
0G!
19!
0(!
0.!
1}
0V
0p
0o
0\
0T
0`"
1H"
0P"
0E!
0M
0D"
09
0:
0A
1k!
1:!
00!
0_
0&!
12!
0C!
0L!
1z
1+!
0*
01
02
0Q
0a
0"!
13!
1@
0?
0=
0;
0i
1`
1-!
0U!
09!
1(!
00
0.
0,
1+
1l!
1"!
1?
1C
0{
1k
0:!
1C!
1j!
0k!
1(
1,
0X!
1a
1=
0B
0}
0)
1.
1n
1>
1-
0"!
0?
0,
#210000
b111110 !
b111111 !
1I
1K
1e
1V
1@"
1P"
1m
1!!
1Q
0a
1Y
0n
0>
1<
0=
1;
10
0.
1/
0-
1n
1"!
1?
1>
1-
1,
#220000
b1111111 !
b1011111 !
b1001111 !
b1000111 !
b1000011 !
b1000010 !
0I
0P
0S
0Z
0b
1q
1L"
18!
0F!
0#!
0W!
0t
0>!
0*!
0f
0\"
0H"
0@"
0P"
1E!
1A
0j!
0m
0`
0z
0k
0+!
11!
02!
0(!
1:!
1{!
1*
0Q
1a
0"!
0l!
0C
0?
1=
0;
0{!
0!!
1B!
0C!
1S!
0D!
0-!
01!
00
1.
0,
0(
1l!
03!
1}!
1"!
0a
0=
1?
1D
0@
1C
1U!
0B!
1(
0+
1'
1,
0.
0}!
0"!
0E!
0A
0?
0D
0S!
1D!
0'
0,
0*
1X!
1B
0U!
1)
1E!
1A
1*
0X!
0B
0)
#230000
b1000000 !
b1000100 !
b1000101 !
1I
0K
1P
1\"
1H"
0e
0V
1@"
1P"
1`
1z
1Q
1a
0Y
0n
0>
0<
1=
1;
1m
10
1.
0/
0-
1"!
0a
0=
1?
1,
0.
1n
1>
1-
#240000
b1001101 !
b1001001 !
b1001000 !
0I
0P
1S
1>!
1*!
1f
0\"
0H"
0@"
0P"
0m
0`
0z
1k
1+!
0Q
1a
1=
0;
1-!
00
1.
0"!
0a
0=
0?
0,
0.
13!
1@
1+
#250000
b10000 "
b11000 "
b11001 "
b1001010 !
b1001011 !
1I
1K
1J
0O
1U
1J!
08!
1}
0f
1]
1V
1T"
1T
1e
1@"
1M
1D"
19
1:
1!!
1_
1t
1`
0k
0:!
1L!
11
12
1a
0n
1"!
1?
0>
1=
12!
1i
0`
1U!
0D!
0!!
1m
1.
0-
1,
1n
0a
0=
1>
1B!
1k
1~
0m
1-
0.
03!
0"!
0n
0E!
1X!
1a
1=
1B
0A
0>
0?
0@
1D!
0~
1!!
0+
0,
0-
0*
1)
1.
1"!
1?
1,
1E!
1A
1*
#260000
b1001111 !
b1001110 !
0I
1P
1\"
1f
1X"
0@"
0V
0D"
09
0_
1{
0k
1z
02
1Y
0a
1Q
1;
0=
1<
0i
1`
1.!
0}
11!
0!!
1/
0.
10
0"!
1n
1>
0?
0{
1k
10!
01!
0,
1-
13!
1a
1=
1@
0.!
1}
0B!
1C!
1!!
1+
1.
0n
0>
00!
11!
0-
1B!
0C!
#270000
b1011110 !
b1010110 !
b1010100 !
b1010000 !
b1010001 !
1I
0K
0P
0S
1Z
1W!
1(!
1`"
0>!
0*!
0}
0f
0T
0\"
0X"
0e
0]
1V
1@"
0E!
0M
1D"
19
0:
0A
1j!
1m
0`
0!!
0z
0k
01!
0+!
1C!
0*
01
12
0X!
1n
0Q
1"!
03!
0@
1?
0;
1>
0B
1{!
02!
0B!
1S!
0D!
0-!
0)
1-
00
1,
0+
0l!
13!
0a
0=
1@
0C
0C!
0S!
1D!
1e!
0U!
0W!
0(
1+
0.
1}!
1E!
1A
1D
0D!
0e!
1U!
1g!
0j!
1W!
1'
1*
0E!
0A
0g!
0{!
1|!
1j!
0W!
0*
1E!
1A
1{!
0|!
0j!
1*
1X!
1B
0{!
1)
1l!
1C
1(
0}!
0D
0'
#280000
b1010101 !
b1010100 !
0I
1P
1\"
1f
1X"
0@"
0V
0D"
09
0m
1k
1z
02
0Y
1a
1Q
1;
1=
0<
12!
0/
1.
10
0"!
0?
1B!
0,
03!
0@
1D!
0+
1W!
0E!
0A
1j!
0*
0X!
0B
1{!
0)
0l!
0C
0(
1}!
1D
1'
#290000
b1010110 !
b1010111 !
1I
1K
1e
1]
1V
1@"
1M
1D"
19
1:
1m
1`
1!!
11
12
0a
1Y
0n
0>
1<
0=
0.
1/
0-
1n
1"!
1a
1=
1?
1>
1-
1,
1.
#300000
b11011 "
b11111 "
b11110 "
b1011111 !
b1011011 !
b1011010 !
0I
0P
1S
0J
1L
1O
18!
1}
1'!
0t
16!
1%!
1c
1\
1N
0T"
0`"
0X"
1>!
1*!
0\"
0@"
0M
0D"
09
0:
19!
0(!
0m
0z
1+!
0'!
1t
0`
1j
1~
1&!
1:!
01
02
0n
0>
1K!
0:!
0~
1{
0k
11!
1S!
0D!
1-!
0B!
0-
1n
0"!
0a
13!
1@
0=
0?
1>
1]!
0L!
01!
1.!
0}
1B!
1e!
0U!
0S!
0W!
1-
0,
0.
1+
1"!
1E!
0n
0>
1A
1?
1^!
10!
1D!
1g!
0e!
0j!
11!
02!
1,
1*
0-
03!
0"!
0?
0@
0{!
1|!
0B!
1C!
1W!
0+
0,
13!
0E!
0A
1@
1+
0*
1X!
1B
1)
#310000
b1011000 !
b1011100 !
b1011101 !
1I
0K
1P
00!
0.!
1}
1\"
0f
1H"
1T
0e
0]
0N
1@"
1P"
1M
1:
10!
0!!
1_
0{
1k
1z
01!
12!
1B!
0C!
11
1a
1n
0Y
1"!
03!
0@
1?
0<
1>
1=
1`
0}
0B!
1C!
1!!
1.
1-
0/
1,
0+
13!
0n
0>
1@
1m
1+
0-
0a
0=
0.
1n
1>
1-
#320000
b1111101 !
b1101101 !
b1100101 !
b1100001 !
b1100000 !
0I
0P
0S
0Z
1b
1Y!
1F!
1I!
08!
1#!
1p
0c
0W!
09!
1(!
0t
0>!
00!
0*!
0\
0T
0\"
0H"
0@"
0V
0P"
1E!
0M
0:
1A
1[!
0J!
0K!
0_
0m
0j
0z
0+!
11!
02!
1~
0!!
1t
19!
0(!
1*
01
0Q
1a
0"!
0n
0>
0?
1=
0;
1\!
0]!
0`
0~
0k
1B!
0C!
1:!
0-!
00
1.
0,
0-
1n
03!
0@
1>
01!
1S!
0D!
0B!
1-
0+
1"!
13!
0n
0a
0=
0>
1@
1?
1U!
0S!
1D!
1,
1+
0-
0.
03!
0E!
0A
0@
0U!
1k!
0+
0*
1E!
0X!
0B
1A
0k!
1*
0)
1l!
1X!
1B
1C
1(
1)
0l!
0C
0(
#330000
b1100010 !
b1100011 !
1I
1K
1h
1e
1N
1@"
1P"
1M
1:
1X
1k
11
1a
1n
1>
1=
1!!
1.
1-
1Y
0n
0>
1<
11!
1/
0-
0"!
0?
0,
13!
1@
1+
#340000
b1100111 !
b1100110 !
0I
1P
1\"
1f
1H"
1T
0h
1]
0@"
1V
0P"
0M
0:
0X
1_
1j
1z
01
1Q
0a
0=
1;
1`
1{
0k
01!
12!
10
0.
0Y
1"!
1?
0<
1}
0!!
0/
1,
1n
1a
1=
1>
1-
1.
#350000
b111110 "
b101110 "
b100110 "
b100010 "
b100011 "
b1101110 !
b1101100 !
b1101000 !
b1101001 !
1I
0K
0P
1S
1J
0O
0U
0[
1d
1y!
1h!
1`!
1;!
0L"
0F!
0\"
0Y!
0[!
1J!
0I!
0f
0]
0V
0#!
0H"
1T"
1c
1\
0N
1M
1D"
19
1:
0\!
0J!
1i
0`
0j
1!!
1'!
0t
09!
1(!
0_
0{
1k
1L!
0z
1z!
1i!
0|!
1A!
11
12
0Q
0n
1Y
0X!
1l!
1C
0B
1<
0>
0;
11!
02!
19!
0(!
0:!
0i
1`
0}
0D!
1T!
1|!
1U!
1B!
0L!
0^!
00
0-
1/
0)
1(
0"!
0l!
1n
03!
0a
0=
0@
1>
0C
0?
0B!
1:!
0k
1&"
1S!
0T!
0g!
01!
0,
0(
1-
0+
0.
13!
0}!
1X!
0E!
1"!
1a
1=
1?
0A
1B
0D
1@
0S!
1T!
0|!
1+
0'
1)
0*
1,
1.
1("
03!
1l!
0n
0>
1C
0@
1E
0&"
1&
0+
1(
0-
1}!
1D
1'
0("
0E
0&
#360000
b1101101 !
b1101100 !
0I
1P
1=!
1*!
1g
0\
0T
1X"
0e
0M
0D"
09
0:
0!!
0`
1k
1+!
01
02
1n
1Q
0Y
0<
1;
1>
1-!
1!!
1-
10
0/
0"!
0n
0a
0=
0>
0?
0,
0-
0.
1"!
13!
1@
1?
1,
1+
#370000
b1101110 !
b1101111 !
1I
1K
1w
1e
1R
1D"
19
1z
12
1Y
1n
1>
1<
11!
1/
1-
0"!
0?
1B!
0,
03!
0@
1D!
0+
1E!
1A
1*
#380000
b1111111 !
b1110111 !
b1110011 !
b1110010 !
0I
0P
0S
1Z
1k!
1o
0c
1`"
0`!
0;!
0*!
0g
0=!
0X"
0e
0R
1N
0X!
1M
0D"
09
1:
0B
1{!
0!!
0A!
0k
0+!
15!
0&!
0'!
1t
0)
11
02
0l!
0Y
1a
1=
0<
0C
1&"
01!
12!
09!
1K!
0:!
0-!
1S!
0D!
0T!
0(
0/
1.
0}!
0n
0>
0D
0B!
0K!
1:!
1L!
0S!
1D!
0'
0-
1("
13!
0E!
0A
1@
1E
0L!
1&
1+
0*
1E!
1A
0U!
1*
0k!
1X!
1B
0{!
1)
1l!
1C
0&"
1(
1}!
1D
1'
0("
0E
0&
#390000
b1110000 !
b1110100 !
b1110101 !
1I
0K
1P
1=!
1*!
1T
1X"
0w
1e
0N
1D"
19
1+!
0z
12
1n
1Y
1<
1>
02!
1-!
1-
1/
1"!
1?
1,
#400000
b100001 "
b101001 "
b101000 "
b1111101 !
b1111001 !
b1111000 !
0I
0P
1S
0J
0L
1U
1Y!
1J!
18!
1(!
1}
06!
0%!
0p
0o
0T
0T"
0`"
0X"
1`!
1;!
0*!
0=!
0e
0M
0D"
09
0:
1A!
0+!
0t
05!
1K!
0:!
12!
1C!
1L!
01
02
0n
0Q
0a
0Y
0"!
03!
0@
0?
0<
0=
0;
0>
1]!
0L!
1S!
0D!
1U!
0K!
1:!
02!
0-!
0-
00
0.
0/
0,
0+
13!
1"!
1?
1@
1^!
0]!
1L!
0C!
0S!
1D!
1T!
1k!
1+
1,
0X!
0E!
0A
0B
0^!
0D!
1e!
0U!
1{!
1g!
0)
0*
0l!
1E!
1A
0C
1&"
0{!
1|!
0k!
0(
1*
0}!
1l!
1X!
0E!
0A
1B
1C
0D
0'
1(
1)
0*
1("
0l!
0C
1E
1&
0(
#410000
b1111010 !
b1111011 !
1I
1K
1w
1e
1]
1V
1`
1z
1Y
1n
1>
1<
12!
1/
1-
0"!
1a
1=
0?
1B!
0,
1.
03!
0@
1D!
0+
1E!
1A
1*
