CPU/simulation/qsim/Evermoore.msim.vcd
$comment
	File created using the following command:
		vcd file Evermoore.msim.vcd -direction
$end
$date
	Tue Jun 02 10:17:57 2020
$end
$version
	ModelSim Version 10.5b
$end
$timescale
	1ps
$end

$scope module Statemachine_logic_vlg_vec_tst $end
$var reg 1 ! EXTRA $end
$var reg 2 " Q [1:0] $end
$var wire 1 # N [1] $end
$var wire 1 $ N [0] $end

$scope module i1 $end
$var wire 1 % gnd $end
$var wire 1 & vcc $end
$var wire 1 ' unknown $end
$var tri1 1 ( devclrn $end
$var tri1 1 ) devpor $end
$var tri1 1 * devoe $end
$var wire 1 + N[0]~output_o $end
$var wire 1 , N[1]~output_o $end
$var wire 1 - Q[0]~input_o $end
$var wire 1 . EXTRA~input_o $end
$var wire 1 / Q[1]~input_o $end
$var wire 1 0 N~0_combout $end
$var wire 1 1 N~1_combout $end
$upscope $end
$upscope $end
$enddefinitions $end
#0
$dumpvars
0!
b0 "
1$
0#
0%
1&
x'
1(
1)
1*
1+
0,
0-
0.
0/
10
01
$end
#10000
1!
1.
#20000
b1 "
0!
1-
0.
#30000
1!
1.
11
00
0+
1,
1#
0$
#40000
b11 "
b10 "
0!
0-
1/
0.
01
10
1+
0,
0#
1$
#50000
1!
1.
#60000
b11 "
0!
1-
0.
00
0+
0$
#70000
1!
1.
#80000
b1 "
b0 "
0!
0-
0/
0.
10
1+
1$
#90000
1!
1.
#100000
b1 "
0!
1-
0.
#110000
1!
1.
11
00
0+
1,
1#
0$
#120000
b11 "
b10 "
0!
0-
1/
0.
01
10
1+
0,
0#
1$
#130000
1!
1.
#140000
b11 "
0!
1-
0.
00
0+
0$
#150000
1!
1.
#160000
b1 "
b0 "
0!
0-
0/
0.
10
1+
1$
#170000
1!
1.
#180000
b1 "
0!
1-
0.
#190000
1!
1.
11
00
0+
1,
1#
0$
#200000
b11 "
b10 "
0!
0-
1/
0.
01
10
1+
0,
0#
1$
#210000
1!
1.
#220000
b11 "
0!
1-
0.
00
0+
0$
#230000
1!
1.
#240000
b1 "
b0 "
0!
0-
0/
0.
10
1+
1$
#250000
1!
1.
#260000
b1 "
0!
1-
0.
#270000
1!
1.
11
00
0+
1,
1#
0$
#280000
b11 "
b10 "
0!
0-
1/
0.
01
10
1+
0,
0#
1$
#290000
1!
1.
#300000
b11 "
0!
1-
0.
00
0+
0$
#310000
1!
1.
#320000
b1 "
b0 "
0!
0-
0/
0.
10
1+
1$
#330000
1!
1.
#340000
b1 "
0!
1-
0.
#350000
1!
1.
11
00
0+
1,
1#
0$
#360000
b11 "
b10 "
0!
0-
1/
0.
01
10
1+
0,
0#
1$
#370000
1!
1.
#380000
b11 "
0!
1-
0.
00
0+
0$
#390000
1!
1.
#400000
b1 "
b0 "
0!
0-
0/
0.
10
1+
1$
#410000
1!
1.
#420000
b1 "
0!
1-
0.
#430000
1!
1.
11
00
0+
1,
1#
0$
#440000
b11 "
b10 "
0!
0-
1/
0.
01
10
1+
0,
0#
1$
#450000
1!
1.
#460000
b11 "
0!
1-
0.
00
0+
0$
#470000
1!
1.
#480000
b1 "
b0 "
0!
0-
0/
0.
10
1+
1$
#490000
1!
1.
#500000
b1 "
0!
1-
0.
#510000
1!
1.
11
00
0+
1,
1#
0$
#520000
b11 "
b10 "
0!
0-
1/
0.
01
10
1+
0,
0#
1$
#530000
1!
1.
#540000
b11 "
0!
1-
0.
00
0+
0$
#550000
1!
1.
#560000
b1 "
b0 "
0!
0-
0/
0.
10
1+
1$
#570000
1!
1.
#580000
b1 "
0!
1-
0.
#590000
1!
1.
11
00
0+
1,
1#
0$
#600000
b11 "
b10 "
0!
0-
1/
0.
01
10
1+
0,
0#
1$
#610000
1!
1.
#620000
b11 "
0!
1-
0.
00
0+
0$
#630000
1!
1.
#640000
b1 "
b0 "
0!
0-
0/
0.
10
1+
1$
#650000
1!
1.
#660000
b1 "
0!
1-
0.
#670000
1!
1.
11
00
0+
1,
1#
0$
#680000
b11 "
b10 "
0!
0-
1/
0.
01
10
1+
0,
0#
1$
#690000
1!
1.
#700000
b11 "
0!
1-
0.
00
0+
0$
#710000
1!
1.
#720000
b1 "
b0 "
0!
0-
0/
0.
10
1+
1$
#730000
1!
1.
#740000
b1 "
0!
1-
0.
#750000
1!
1.
11
00
0+
1,
1#
0$
#760000
b11 "
b10 "
0!
0-
1/
0.
01
10
1+
0,
0#
1$
#770000
1!
1.
#780000
b11 "
0!
1-
0.
00
0+
0$
#790000
1!
1.
#800000
b1 "
b0 "
0!
0-
0/
0.
10
1+
1$
#810000
1!
1.
#820000
b1 "
0!
1-
0.
#830000
1!
1.
11
00
0+
1,
1#
0$
#840000
b11 "
b10 "
0!
0-
1/
0.
01
10
1+
0,
0#
1$
#850000
1!
1.
#860000
b11 "
0!
1-
0.
00
0+
0$
#870000
1!
1.
#880000
b1 "
b0 "
0!
0-
0/
0.
10
1+
1$
#890000
1!
1.
#900000
b1 "
0!
1-
0.
#910000
1!
1.
11
00
0+
1,
1#
0$
#920000
b11 "
b10 "
0!
0-
1/
0.
01
10
1+
0,
0#
1$
#930000
1!
1.
#940000
b11 "
0!
1-
0.
00
0+
0$
#950000
1!
1.
#960000
b1 "
b0 "
0!
0-
0/
0.
10
1+
1$
#970000
1!
1.
#980000
b1 "
0!
1-
0.
#990000
1!
1.
11
00
0+
1,
1#
0$
